268983 935308 525
688049 998689 525
733029 922961 525
913169 959075 507
898974 905073 401
413418 565463 470
908310 962577 507
392884 966997 525
582024 911781 525
122558 460674 449
395553 883201 525
865013 872396 432
172982 266350 443
930248 970030 507
853259 854962 419
342202 762198 509
141596 770714 509
499058 628547 509
170340 900454 525
542714 901297 525
135218 643743 509
353540 785295 509
967711 990346 458
380008 824219 509
321834 581728 470
417470 608902 470
61769 552731 470
850199 892863 445
591 540294 470
660717 840430 525
872749 903958 445
923893 996288 507
40582 649301 509
792906 903297 525
728218 871852 525
110143 611858 470
716829 757175 424
707420 875504 525
413803 816325 509
632153 658215 429
963950 976208 458
628350 999033 525
103177 207602 383
343371 537285 470
232796 616851 470
455880 990574 525
190659 863134 525
165104 542930 470
984849 999743 440
774971 799226 468
539521 937316 525
387034 923176 525
199786 976859 525
8904 518280 470
656155 759780 504
677721 929511 525
636860 865308 525
812729 877116 525
312340 707765 509
723800 909658 525
554452 574714 421
465059 742579 509
161538 298026 443
278164 358600 441
11244 665684 509
46862 413303 449
468376 955021 525
252942 883521 525
896743 979102 507
1521 320475 443
292647 565481 470
960804 979224 458
512033 634811 509
710891 815591 468
238830 670662 509
823439 879153 525
981183 984038 383
198646 284890 443
163228 599146 470
768132 793179 437
879670 943571 507
926120 992217 507
588235 942732 525
486762 949118 525
602824 975203 525
289627 992327 525
577446 804264 509
727675 773858 468
92319 849992 525
468800 955865 525
37880 119375 354
883230 968559 507
819475 968064 525
327860 605054 470
916962 921437 432
982499 988733 427
869595 919046 476
22087 782097 509
992015 996218 365
986274 995771 396
661565 893352 525
71240 560261 470
231613 304158 407
878000 941797 507
221992 922016 525
276082 502423 449
398361 601145 470
401359 677189 509
508484 982995 525
150480 930086 525
793085 945458 525
554087 853974 525
54391 702499 509
377275 648819 509
911175 914948 401
963823 972133 458
370739 954351 525
584868 884724 525
472547 592609 470
164412 513335 470
851106 858225 419
530793 904805 525
288795 589216 470
427681 520908 470
806089 988467 525
252793 376688 441
600706 732258 509
944260 954547 414
210795 825970 509
288079 903615 525
155460 489773 449
190693 994167 525
34890 329292 443
10753 223413 386
164600 613976 470
643124 668795 442
769475 991464 525
310873 410471 449
498026 714210 509
220092 324409 443
193921 246681 443
421819 800351 509
737388 755737 424
856899 972045 507
480262 624714 470
30404 204302 383
943911 959340 414
607339 930172 525
661491 965858 525
996483 996546 321
812377 910066 525
755843 768054 468
227584 837244 509
11157 570184 470
397769 776858 509
140063 267228 443
548203 713352 509
551685 559468 421
910515 960911 507
605889 902596 525
376255 845527 525
462445 868753 525
657397 766451 504
677990 913429 525
227385 450775 449
833705 942745 525
182581 189406 347
554300 867141 525
774693 783836 437
684744 979685 525
17633 275762 443
555188 826298 509
93024 603478 470
140666 416985 449
527744 695534 509
607374 727217 509
463324 665239 509
381576 545287 470
654633 752313 504
881065 978042 507
575491 773533 509
225718 264071 443
183100 754437 509
19575 727839 509
818930 840780 525
537410 673943 509
829247 886507 525
681035 961855 525
5247 148880 375
779549 864029 525
479663 859956 525
191477 468543 449
956130 986713 458
534255 899620 525
117813 297657 443
737206 788269 468
680718 751925 504
161866 707855 509
532093 645750 509
362221 709120 509
773094 855097 525
609992 719563 509
511097 552953 470
999501 999887 290
780348 859195 525
774456 819431 468
231385 552935 470
751291 962184 525
228405 318280 443
567105 867268 525
539913 613669 452
811552 976955 525
115753 441832 449
809528 959253 525
662664 844428 525
923547 950799 507
545232 984009 525
411721 417198 387
500714 777992 509
187535 771886 509
879435 986553 507
410214 572034 470
982521 985806 427
258745 843770 525
222799 238241 443
851511 918005 476
215713 953405 525
929867 993366 507
268434 765705 509
899482 934675 476
48950 565825 470
814053 857731 525
224497 694136 509
477736 800929 509
626753 864822 525
70230 874373 525
301326 643428 509
760386 830593 468
234629 310292 407
460051 998950 525
780260 828233 468
334925 410673 449
225154 732480 509
751725 892119 525
472536 559212 470
50447 367194 443
785032 813444 468
867811 995894 507
871275 914558 476
812813 852591 525
